{
    "DEBUG": true,
    "SECRET_KEY": "__random_key__",
    "DOMAIN_NAME": "",
    "FRONTEND_URL": "http://localhost:3000",
    "DEBUG_TOOLBAR": false,
    "SUFFIX_ADMIN": "",
    "GPG_KEY": "",

    "ADMIN_USERNAME": "",

    "EMAIL_HOST": "postfix",
    "EMAIL_PORT": 587,

    "ALLOWED_HOSTS": "",
    "CORS_ALLOWED_ORIGINS": "",

    "POSTGRES_ENGINE": "django.db.backends.postgresql",
    "POSTGRES_NAME": "",
    "POSTGRES_DB": "",
    "POSTGRES_USER": "",
    "POSTGRES_PASSWORD": "",
    "POSTGRES_HOST": "",
    "POSTGRES_PORT": ""
}